[{"id":1,"first_name":"Pooh","last_name":"Dayce","email":"pdayce0@ca.gov","password":"ORp2sUwpl"},
{"id":2,"first_name":"Dacy","last_name":"Siggee","email":"dsiggee1@rediff.com","password":"MC0Yq1VCUUp"},
{"id":3,"first_name":"Noah","last_name":"Puttock","email":"nputtock2@illinois.edu","password":"GSD3E2aRN9"},
{"id":4,"first_name":"Husein","last_name":"O'Cahey","email":"hocahey3@skyrock.com","password":"MdppFrccg65"},
{"id":5,"first_name":"Brooke","last_name":"Sargood","email":"bsargood4@tripod.com","password":"gS0E7xEyf09m"},
{"id":6,"first_name":"Ole","last_name":"MacKaig","email":"omackaig5@naver.com","password":"YtAhLOmlb4aO"},
{"id":7,"first_name":"Floyd","last_name":"Kiraly","email":"fkiraly6@scientificamerican.com","password":"0RXqiaum5z1S"},
{"id":8,"first_name":"Giacobo","last_name":"Humbee","email":"ghumbee7@usgs.gov","password":"JqKcIVn"},
{"id":9,"first_name":"Hettie","last_name":"Palfree","email":"hpalfree8@topsy.com","password":"aWXTy59P9"},
{"id":10,"first_name":"Clo","last_name":"Sharma","email":"csharma9@aol.com","password":"nzh4WvHvdQmM"},
{"id":11,"first_name":"Aldo","last_name":"Goodhand","email":"agoodhanda@disqus.com","password":"Z570zGqOl9K6"},
{"id":12,"first_name":"Brittney","last_name":"Mustill","email":"bmustillb@issuu.com","password":"uFhodEbs"},
{"id":13,"first_name":"Wyatt","last_name":"Cottisford","email":"wcottisfordc@slideshare.net","password":"h4WRZM"},
{"id":14,"first_name":"Dillie","last_name":"Stoke","email":"dstoked@desdev.cn","password":"bomk8Z9u"},
{"id":15,"first_name":"Arlen","last_name":"MacKellar","email":"amackellare@guardian.co.uk","password":"4g5cM324S"},
{"id":16,"first_name":"Floria","last_name":"Tongue","email":"ftonguef@liveinternet.ru","password":"5L0cKNqpEU"},
{"id":17,"first_name":"Antonina","last_name":"Gudgeon","email":"agudgeong@ft.com","password":"4MvDiyMNDT"},
{"id":18,"first_name":"Regina","last_name":"Dericut","email":"rdericuth@printfriendly.com","password":"wde4WJMw7"},
{"id":19,"first_name":"Angelica","last_name":"Mahony","email":"amahonyi@wordpress.com","password":"FlTXHhpl"},
{"id":20,"first_name":"Flynn","last_name":"Antonin","email":"fantoninj@prlog.org","password":"nrO0e3kLl1h"},
{"id":21,"first_name":"Storm","last_name":"Saggers","email":"ssaggersk@bing.com","password":"MkYFm9KPTZa0"},
{"id":22,"first_name":"Reynolds","last_name":"Nesey","email":"rneseyl@g.co","password":"ltgmz5"},
{"id":23,"first_name":"Anders","last_name":"Mallia","email":"amalliam@nps.gov","password":"AKlsLW"},
{"id":24,"first_name":"Rachael","last_name":"Treffrey","email":"rtreffreyn@hubpages.com","password":"sfgAExcU"},
{"id":25,"first_name":"Aile","last_name":"Fullun","email":"afulluno@cargocollective.com","password":"JzlkP6isOEx"},
{"id":26,"first_name":"Darb","last_name":"Ablewhite","email":"dablewhitep@youtu.be","password":"RhKOia"},
{"id":27,"first_name":"Antonella","last_name":"Moverley","email":"amoverleyq@twitter.com","password":"O28puX1"},
{"id":28,"first_name":"Adore","last_name":"Delatour","email":"adelatourr@blogs.com","password":"Vd2IDzECSw"},
{"id":29,"first_name":"Sapphire","last_name":"Ducaen","email":"sducaens@wordpress.org","password":"zwmPQ7FgnHRN"},
{"id":30,"first_name":"Jean","last_name":"Houdhury","email":"jhoudhuryt@bandcamp.com","password":"6Va99He"},
{"id":31,"first_name":"Cam","last_name":"Latty","email":"clattyu@tmall.com","password":"JPxfjv"},
{"id":32,"first_name":"Maurizia","last_name":"Swires","email":"mswiresv@buzzfeed.com","password":"bgWFrNomWb"},
{"id":33,"first_name":"Kassia","last_name":"Fountain","email":"kfountainw@yelp.com","password":"NxDcSYS"},
{"id":34,"first_name":"Jeremie","last_name":"Duberry","email":"jduberryx@linkedin.com","password":"HSXWY3DG1"},
{"id":35,"first_name":"Godard","last_name":"Gebby","email":"ggebbyy@google.pl","password":"j19PwnA8B"},
{"id":36,"first_name":"Andriana","last_name":"Eslemont","email":"aeslemontz@clickbank.net","password":"0SW6oqSPZT"},
{"id":37,"first_name":"Brooks","last_name":"Papps","email":"bpapps10@shareasale.com","password":"JmwDHbnlx"},
{"id":38,"first_name":"Patricio","last_name":"Freschini","email":"pfreschini11@umn.edu","password":"pQ6nyEhUv"},
{"id":39,"first_name":"Lotty","last_name":"Wager","email":"lwager12@stanford.edu","password":"Im0Y87"},
{"id":40,"first_name":"Buck","last_name":"Goodbourn","email":"bgoodbourn13@unc.edu","password":"GrXbGRky"},
{"id":41,"first_name":"Kristine","last_name":"Posnett","email":"kposnett14@telegraph.co.uk","password":"qiF5HKsYPZ"},
{"id":42,"first_name":"Zea","last_name":"Reubens","email":"zreubens15@alexa.com","password":"ipWNNboLpgf"},
{"id":43,"first_name":"Gwen","last_name":"Union","email":"gunion16@shop-pro.jp","password":"NrTDSALK"},
{"id":44,"first_name":"Yoshi","last_name":"MacNamee","email":"ymacnamee17@comsenz.com","password":"hXPAwWXAsPMy"},
{"id":45,"first_name":"Holli","last_name":"Corbert","email":"hcorbert18@mozilla.com","password":"xGLiE6bpG"},
{"id":46,"first_name":"Letitia","last_name":"Kite","email":"lkite19@guardian.co.uk","password":"SBT5UCXLqN"},
{"id":47,"first_name":"Alisander","last_name":"Lassetter","email":"alassetter1a@wikipedia.org","password":"W7kVHNMJ0"},
{"id":48,"first_name":"Arturo","last_name":"Snasdell","email":"asnasdell1b@yellowpages.com","password":"xStdMZBfuHH7"},
{"id":49,"first_name":"Lemmie","last_name":"Hamlen","email":"lhamlen1c@weebly.com","password":"dtZkqieoZ"},
{"id":50,"first_name":"Teodoro","last_name":"McSkeagan","email":"tmcskeagan1d@businesswire.com","password":"kjNnPRMyJ6"}]